741819 307573 509
842573 189888 525
861016 486351 525
700033 315194 509
870974 218266 525
410082 584857 470
727734 873913 525
162112 922294 525
430396 894173 525
461419 750887 509
710651 707979 380
476798 826612 509
951456 874130 507
880073 782033 525
251933 113530 443
703912 56378 509
737990 335320 509
750587 270616 509
821119 829817 419
707509 444545 509
489312 39577 449
680785 866058 525
378804 368408 423
90942 814210 509
564121 46229 470
323004 87233 443
607877 29806 470
957986 721185 525
551231 961376 525
43117 156810 383
190201 620934 470
943256 562656 525
63610 40319 340
746421 706569 424
681951 100372 509
14338 473074 449
776717 194651 509
631063 902047 525
89537 562863 470
147752 212111 383
453090 179610 449
133304 439311 449
236948 512238 470
235677 838920 525
904139 411255 525
430406 849613 525
227282 718185 509
440362 841259 525
501846 146254 449
947104 953487 414
256016 940093 525
643944 711332 504
671147 741620 504
84299 656919 509
721201 473306 509
251875 281953 407
639375 340463 509
392441 971538 525
253339 192029 443
412892 961378 525
279751 665368 509
128124 919445 525
470791 984550 525
544485 358129 470
657656 901582 525
158717 936137 525
731751 832780 468
746745 251984 509
627650 299035 509
309692 962526 525
866685 978539 507
828064 231795 509
507199 589974 470
238745 480326 449
187285 346301 443
6184 584323 470
924088 371071 525
602954 274492 470
449475 729839 509
516642 255376 470
617978 312917 470
688369 429786 509
468370 555584 470
797286 138083 509
305279 66651 443
767106 728160 424
212369 194504 373
969880 879826 507
870473 737660 525
912532 407908 525
442122 598451 470
784734 725405 468
911844 678402 525
512384 35453 470
267918 91128 443
6226 570099 470
942515 148685 525
187974 927344 525
84438 961907 525
551220 382475 470
40656 599654 470
790213 797382 468
649838 712514 504
645972 725080 504
352639 167928 443
44927 823400 509
498572 9790 449
459822 866297 525
776666 732347 468
405058 67207 443
52079 103740 351
165568 437397 449
279706 769890 509
552261 776894 509
664550 761289 504
