16808 475250 449
650074 943659 525
108931 211273 383
27545 850879 525
777924 237710 509
564441 438166 470
484493 243043 449
807988 522504 509
282328 531730 470
378841 542613 470
544304 833170 509
817710 97158 509
129561 570934 470
493100 280279 449
351817 795336 509
899098 807827 525
613513 929268 525
723811 877634 525
580980 379150 470
236580 558822 470
511968 10673 470
901394 819337 525
125486 91746 354
425229 894092 525
640195 186358 509
35002 921154 525
616709 357945 470
515669 571491 452
788125 702197 504
509531 60904 449
727723 454667 509
728550 118025 509
797802 806854 406
540978 847409 525
308229 374934 441
260299 938982 525
28636 408014 443
623866 389815 470
739064 554537 509
339426 1670 443
724116 220095 509
75630 446502 449
546518 934196 525
30106 810405 509
319452 194299 443
782189 821124 468
799506 246883 509
406753 731567 509
936717 130338 525
354439 53145 443
851502 844898 419
783872 955829 525
111138 619359 470
153178 982398 525
722295 477905 509
621610 946232 525
959746 844176 507
853636 266299 525
98143 880400 525
827969 90413 509
400261 673558 509
441595 688009 509
716396 325969 509
119114 204531 383
471007 910963 525
797943 285366 509
842083 179853 525
530768 633822 509
185696 824713 509
973672 859902 507
248591 724832 509
314739 153058 443
631617 819791 504
555641 110680 470
437336 77007 449
497973 936099 525
649096 975320 525
583455 345224 470
112290 556761 470
948906 586127 525
236124 129507 443
45814 476771 449
935239 329095 525
896221 987845 507
712367 140535 509
725227 915395 525
941364 318739 525
607845 559591 434
436551 145160 449
808624 764948 468
597386 307218 470
195273 755540 509
399248 242386 441
413497 894886 525
140624 682421 509
28145 531969 470
335736 699916 509
161626 663535 509
46043 796012 509
454680 24153 449
